Chapter 4 둘러보기 | 텍스트마이닝
…
## # A tibble: 3 x 2
##    line text                                                          
##   <int> <chr>                                                         
## 1     1 배우면서도 때때로 익힌다면 또한 기쁘지 아니한가?              
## 2     2 벗이 먼 곳에서부터 오고 있다면 또한 즐겁지 아니한가?          
## 3     3 남이 알아주지 않아도 쌓아두지 않는다면 또한 군자가 아니겠는가?

이제 생성된 데이터프레임을 tidytext패키지의 unnest_tokens함수를 이용해 정돈텍스트 구조로 바꿔보자.

library(tidytext)
text_df %>% unnest_tokens(output = word, input = text)

## # A tibble: 22 x 2
##     line word      
##    <int> <chr>     
##  1     1 배우면서도
##  2     1 때때로    
##  3     1 익힌다면  
##  4     1 또한      
##  5     1 기쁘지    
##  6     1 아니한가  
##  7     2 벗이      
##  8     2 먼        
##  9     2 곳에서부터
## 10     2 오고      
## # ... with 12 more rows
…
