Chapter 6 정제1 | 텍스트마이닝
…
You still fascinate and inspire me. 
You influence me for the better. 
You’re the object of my desire, the #1 Earthly reason for my existence.

먼저 c함수로 문자벡터를 만들고, tibble함수로 데이터프레임을 구성한 다음, unnest_tokens함수로 토큰화해 정돈텍스트에 저장한다. count함수로 단어의 빈도를 계산한다.

text_v <- c('You still fascinate and inspire me.
You influence me for the better. 
You’re the object of my desire, the #1 Earthly reason for my existence.')

tibble(text = text_v) %>% 
  unnest_tokens(output = word, input = text)

## # A tibble: 25 x 1
##    word     
##    <chr>    
##  1 you      
##  2 still    
##  3 fascinate
##  4 and      
##  5 inspire  
##  6 me       
##  7 you      
##  8 influence
##  9 me       
## 10 for      
## # ... with 15 more rows
…
